227 37
195 38
196 66
196 107
197 148
197 189
197 231
198 267
196 295
226 295
199 340
196 417
195 461
260 462
197 506
195 606
196 648
367 649
357 649
359 613
361 551
361 463
343 459
600 460
565 461
565 490
565 499
557 491
421 490
412 490
413 462
413 648
395 649
440 650
503 650
516 650
555 649
604 651
567 650
564 541
565 534
607 540
565 391
567 296
577 295
512 296
513 364
511 392
485 390
413 391
414 296
393 295
412 113
436 112
414 36
382 38
352 38
331 37
325 15
284 14
277 38
259 38
478 114
518 113
557 114
645 112
650 462
677 461
678 498
678 533
677 541
641 539
677 648
639 650
621 326
620 298
621 255
663 255
663 170
621 173
882 113
839 112
799 110
759 111
758 128
881 195
859 194
881 297
817 296
821 276
782 225
760 223
759 173
758 165
781 173
748 173
719 174
759 256
758 297
734 298
736 324
726 325
736 349
737 443
737 461
817 460
813 495
816 539
814 651
781 649
