317 197
197 192
200 294
203 354
205 452
206 480
202 514
206 551
206 561
203 631
203 730
303 732
365 730
377 730
447 730
516 729
576 732
679 729
676 631
676 561
675 551
586 551
586 530
585 566
585 630
583 646
561 641
509 645
445 644
583 729
375 549
305 549
304 530
305 479
305 456
375 453
378 484
440 455
448 186
488 455
451 453
380 191
496 191
561 193
674 452
582 453
587 482
545 452
753 186
766 198
823 254
837 263
839 282
836 360
835 375
821 394
768 443
757 453
